<svg width="24" height="24" viewBox="0 0 24 24" fill="none" xmlns="http://www.w3.org/2000/svg">
<path fill-rule="evenodd" clip-rule="evenodd" d="M6.34148 4.15254C7.8501 2.71798 9.88637 1.91998 12.0001 1.91998C14.1138 1.91998 16.1501 2.71798 17.6587 4.15254C19.169 5.58866 20.027 7.54708 20.027 9.59998C20.027 11.0579 20.4583 12.342 20.9434 13.5134C21.0376 13.741 21.1434 13.9858 21.2488 14.2296C21.3935 14.5646 21.5375 14.8977 21.6495 15.1817C21.8523 15.6955 22.0417 16.2599 22.0749 16.8144C22.1107 17.414 21.9642 18.0295 21.4853 18.5503C21.0435 19.0307 20.4023 19.3367 19.6466 19.5506C18.1431 19.9762 15.7172 20.16 12.0001 20.16C8.28301 20.16 5.8571 19.9762 4.35354 19.5506C3.59787 19.3367 2.9567 19.0307 2.51487 18.5503C2.03593 18.0295 1.88946 17.414 1.92532 16.8144C1.95849 16.2599 2.14786 15.6955 2.35063 15.1817C2.46268 14.8977 2.60663 14.5646 2.75139 14.2296C2.85675 13.9858 2.96253 13.741 3.05676 13.5134C3.54183 12.342 3.97315 11.0579 3.97315 9.59998C3.97315 7.54708 4.83121 5.58866 6.34148 4.15254ZM12.0001 3.83998C10.3653 3.83998 8.80653 4.45798 7.66454 5.54391C6.52419 6.62828 5.89315 8.08837 5.89315 9.59998C5.89315 11.4378 5.34682 13.0015 4.8307 14.248C4.70616 14.5488 4.5936 14.8081 4.48928 15.0485C4.36167 15.3426 4.24639 15.6082 4.13661 15.8865C3.94625 16.3689 3.85586 16.6955 3.8419 16.9291C3.83062 17.1175 3.86964 17.187 3.92808 17.2506C4.02362 17.3545 4.27172 17.532 4.87644 17.7032C6.09369 18.0477 8.27315 18.24 12.0001 18.24C15.727 18.24 17.9065 18.0477 19.1237 17.7032C19.7285 17.532 19.9766 17.3545 20.0721 17.2506C20.1305 17.187 20.1696 17.1175 20.1583 16.9291C20.1443 16.6955 20.0539 16.3689 19.8636 15.8865C19.7538 15.6082 19.6385 15.3426 19.5109 15.0485C19.4066 14.8081 19.294 14.5488 19.1695 14.248C18.6534 13.0015 18.107 11.4378 18.107 9.59998C18.107 8.08838 17.476 6.62828 16.3356 5.54391C15.1936 4.45798 13.6349 3.83998 12.0001 3.83998Z" fill="white"/>
<path fill-rule="evenodd" clip-rule="evenodd" d="M9.19703 21.9321C8.44408 21.2162 8.01148 20.2345 8.01148 19.2H9.93148C9.93148 19.6932 10.1371 20.1765 10.5201 20.5408C10.9048 20.9066 11.4364 21.12 12.0002 21.12C12.564 21.12 13.0956 20.9066 13.4802 20.5408C13.8633 20.1765 14.0689 19.6932 14.0689 19.2H15.9889C15.9889 20.2345 15.5563 21.2162 14.8033 21.9321C14.052 22.6466 13.0429 23.04 12.0002 23.04C10.9575 23.04 9.94833 22.6466 9.19703 21.9321Z" fill="white"/>
</svg>
