<svg width="30" height="30" viewBox="0 0 30 30" fill="none" xmlns="http://www.w3.org/2000/svg">
<path d="M21.2 27.6C21.7766 28.3688 23 27.961 23 27V0H21V2V24L15.5 16.6667L10 24V2V0H8V27C8 27.961 9.22339 28.3688 9.8 27.6L15.5 20L21.2 27.6Z" fill="#E2B755"/>
</svg>
